{
  "swagger": "2.0",
  "info": {
    "description": "esta configuración lista los metodos disponibles en el API destinada para gestionar los medios de pago en el contexto del banco ABC",
    "version": "1.0.0",
    "title": "Medios de pago Banco ABC",
    "termsOfService": "www.serviciosbancoABC.com",
    "contact": {
      "email": "tecnologia@bancoabc.com"
    },
    "license": {
      "name": "Apache 2.0",
      "url": "http://www.apache.org/licenses/LICENSE-2.0.html"
    }
  },
  "host": "serviciosbancoABC.com",
  "basePath": "/v2",
  "tags": [
    {
      "name": "mediospago",
      "description": "Todo lo relacionado con la gestion de medios de pago",
      "externalDocs": {
        "description": "mas información",
        "url": "http://www.serviciosbancoabc.com"
      }
    }
  ],
  "schemes": [
    "https",
    "http"
  ],
  "paths": {
    "/mediospago/listarTiposPago": {
      "get": {
        "tags": [
          "mediospago"
        ],
        "summary": "retorna el listado de medios de pago disponibles",
        "description": "metodo que retorna el listado de medios de pago disponibles en el banco ABC",
        "operationId": "listarTiposPago",
        "produces": [
          "application/json"
        ],
        "responses": {
          "200": {
            "description": "successful operation",
            "schema": {
              "type": "array",
              "items": {
                "$ref": "#/definitions/Metodopago"
              }
            }
          },
          "400": {
            "description": "Invalid status value"
          },
          "404": {
            "description": "listarTiposPago not found"
          }
        }
      }
    }
  },
  "definitions": {
    "Metodopago": {
      "type": "object",
      "required": [
        "idPago",
        "codTipoPago",
        "nombreTipoPago",
        "descripcionTipoPago"
      ],
      "properties": {
        "idPago": {
          "type": "integer",
          "format": "int64"
        },
        "codTipoPago": {
          "type": "string",
          "example": "string"
        },
        "nombreTipoPago": {
          "type": "string",
          "example": "string"
        },
        "descripcionTipoPago": {
          "type": "string",
          "example": "string"
        }
      }
    }
  }
}